Real_Time_Situation (
   Generation_Tool    => "MAST Schedulability Analysis, version 1.4.0.1",
   Generation_Profile => "./mast_linux/mast_analysis holistic -v -l -c -p NetworkSimulator/robot1.mast /home/ktrianta/eclipse_Juno_EE/workspace/omeca/RobotCaseStudy/output_files/3robots_2nodes.mast.out",
   Generation_Date    => 2014-08-11T16:11:37);

Transaction (
   Name     => odom2,
   Results  => 
       ((Type                          => Timing_Result,
         Event_Name                    => odom2__internal_event_1,
         Num_Of_Suspensions            => 0,
         Worst_Blocking_Time           => 0.000,
         Worst_Global_Response_Times   => 
            ((Referenced_Event => initialnode1,
              Time_Value       => 0.007299)),
         Best_Global_Response_Times    => 
            ((Referenced_Event => initialnode1,
              Time_Value       => 3.648E-04)),
         Jitters                       => 
            ((Referenced_Event => initialnode1,
              Time_Value       => 0.006934))),
        (Type                          => Timing_Result,
         Event_Name                    => odom2__internal_event_2,
         Num_Of_Suspensions            => 0,
         Worst_Blocking_Time           => 0.000,
         Worst_Global_Response_Times   => 
            ((Referenced_Event => initialnode1,
              Time_Value       => 0.059332)),
         Best_Global_Response_Times    => 
            ((Referenced_Event => initialnode1,
              Time_Value       => 0.001200)),
         Jitters                       => 
            ((Referenced_Event => initialnode1,
              Time_Value       => 0.058131)))));

Transaction (
   Name     => triggerglobalplan1,
   Results  => 
       ((Type                          => Timing_Result,
         Event_Name                    => triggerglobalplan1__internal_event_1,
         Num_Of_Suspensions            => 0,
         Worst_Blocking_Time           => 0.000,
         Worst_Global_Response_Times   => 
            ((Referenced_Event => initialnode1,
              Time_Value       => 0.009737)),
         Best_Global_Response_Times    => 
            ((Referenced_Event => initialnode1,
              Time_Value       => 9.566E-04)),
         Jitters                       => 
            ((Referenced_Event => initialnode1,
              Time_Value       => 0.008780)))));

Transaction (
   Name     => odommb1,
   Results  => 
       ((Type                          => Timing_Result,
         Event_Name                    => odommb1__internal_event_1,
         Num_Of_Suspensions            => 0,
         Worst_Blocking_Time           => 0.000,
         Worst_Global_Response_Times   => 
            ((Referenced_Event => initialnode1,
              Time_Value       => 0.007299)),
         Best_Global_Response_Times    => 
            ((Referenced_Event => initialnode1,
              Time_Value       => 3.648E-04)),
         Jitters                       => 
            ((Referenced_Event => initialnode1,
              Time_Value       => 0.006934))),
        (Type                          => Timing_Result,
         Event_Name                    => odommb1__internal_event_2,
         Num_Of_Suspensions            => 0,
         Worst_Blocking_Time           => 0.000,
         Worst_Global_Response_Times   => 
            ((Referenced_Event => initialnode1,
              Time_Value       => 0.059332)),
         Best_Global_Response_Times    => 
            ((Referenced_Event => initialnode1,
              Time_Value       => 0.001200)),
         Jitters                       => 
            ((Referenced_Event => initialnode1,
              Time_Value       => 0.058131)))));

Transaction (
   Name     => mbnav2,
   Results  => 
       ((Type                          => Timing_Result,
         Event_Name                    => mbnav2__internal_event_1,
         Num_Of_Suspensions            => 0,
         Worst_Blocking_Time           => 0.000,
         Worst_Global_Response_Times   => 
            ((Referenced_Event => initialnode1,
              Time_Value       => 0.009737)),
         Best_Global_Response_Times    => 
            ((Referenced_Event => initialnode1,
              Time_Value       => 8.568E-04)),
         Jitters                       => 
            ((Referenced_Event => initialnode1,
              Time_Value       => 0.008880))),
        (Type                          => Timing_Result,
         Event_Name                    => mbnav2__internal_event_2,
         Num_Of_Suspensions            => 0,
         Worst_Blocking_Time           => 0.000,
         Worst_Global_Response_Times   => 
            ((Referenced_Event => initialnode1,
              Time_Value       => 0.061770)),
         Best_Global_Response_Times    => 
            ((Referenced_Event => initialnode1,
              Time_Value       => 0.001692)),
         Jitters                       => 
            ((Referenced_Event => initialnode1,
              Time_Value       => 0.060077)))));

Transaction (
   Name     => lasermb3,
   Results  => 
       ((Type                          => Timing_Result,
         Event_Name                    => lasermb3__internal_event_1,
         Num_Of_Suspensions            => 0,
         Worst_Blocking_Time           => 0.000,
         Worst_Global_Response_Times   => 
            ((Referenced_Event => initialnode1,
              Time_Value       => 0.007299)),
         Best_Global_Response_Times    => 
            ((Referenced_Event => initialnode1,
              Time_Value       => 8.606E-05)),
         Jitters                       => 
            ((Referenced_Event => initialnode1,
              Time_Value       => 0.007213))),
        (Type                          => Timing_Result,
         Event_Name                    => lasermb3__internal_event_2,
         Num_Of_Suspensions            => 0,
         Worst_Blocking_Time           => 0.000,
         Worst_Global_Response_Times   => 
            ((Referenced_Event => initialnode1,
              Time_Value       => 0.060309)),
         Best_Global_Response_Times    => 
            ((Referenced_Event => initialnode1,
              Time_Value       => 9.217E-04)),
         Jitters                       => 
            ((Referenced_Event => initialnode1,
              Time_Value       => 0.059387)))));

Transaction (
   Name     => gmcon1,
   Results  => 
       ((Type                          => Timing_Result,
         Event_Name                    => gmcon1__internal_event_1,
         Num_Of_Suspensions            => 0,
         Worst_Blocking_Time           => 0.000,
         Worst_Global_Response_Times   => 
            ((Referenced_Event => initialnode1,
              Time_Value       => 0.517703)),
         Best_Global_Response_Times    => 
            ((Referenced_Event => initialnode1,
              Time_Value       => 5.206E-04)),
         Jitters                       => 
            ((Referenced_Event => initialnode1,
              Time_Value       => 0.517182))),
        (Type                          => Timing_Result,
         Event_Name                    => gmcon1__internal_event_2,
         Num_Of_Suspensions            => 0,
         Worst_Blocking_Time           => 0.000,
         Worst_Global_Response_Times   => 
            ((Referenced_Event => initialnode1,
              Time_Value       => 0.568719)),
         Best_Global_Response_Times    => 
            ((Referenced_Event => initialnode1,
              Time_Value       => 0.002633)),
         Jitters                       => 
            ((Referenced_Event => initialnode1,
              Time_Value       => 0.566086))),
        (Type                          => Timing_Result,
         Event_Name                    => gmcon1__internal_event_3,
         Num_Of_Suspensions            => 0,
         Worst_Blocking_Time           => 0.000,
         Worst_Global_Response_Times   => 
            ((Referenced_Event => initialnode1,
              Time_Value       => 0.594581)),
         Best_Global_Response_Times    => 
            ((Referenced_Event => initialnode1,
              Time_Value       => 0.003469)),
         Jitters                       => 
            ((Referenced_Event => initialnode1,
              Time_Value       => 0.591113)))));

Transaction (
   Name     => mojo_framesmb3,
   Results  => 
       ((Type                          => Timing_Result,
         Event_Name                    => mojo_framesmb3__internal_event_1,
         Num_Of_Suspensions            => 0,
         Worst_Blocking_Time           => 0.000,
         Worst_Global_Response_Times   => 
            ((Referenced_Event => initialnode1,
              Time_Value       => 0.012544)),
         Best_Global_Response_Times    => 
            ((Referenced_Event => initialnode1,
              Time_Value       => 3.632E-04)),
         Jitters                       => 
            ((Referenced_Event => initialnode1,
              Time_Value       => 0.012181))),
        (Type                          => Timing_Result,
         Event_Name                    => mojo_framesmb3__internal_event_2,
         Num_Of_Suspensions            => 0,
         Worst_Blocking_Time           => 0.000,
         Worst_Global_Response_Times   => 
            ((Referenced_Event => initialnode1,
              Time_Value       => 0.064577)),
         Best_Global_Response_Times    => 
            ((Referenced_Event => initialnode1,
              Time_Value       => 0.001199)),
         Jitters                       => 
            ((Referenced_Event => initialnode1,
              Time_Value       => 0.063378)))));

Transaction (
   Name     => odom3,
   Results  => 
       ((Type                          => Timing_Result,
         Event_Name                    => odom3__internal_event_1,
         Num_Of_Suspensions            => 0,
         Worst_Blocking_Time           => 0.000,
         Worst_Global_Response_Times   => 
            ((Referenced_Event => initialnode1,
              Time_Value       => 0.007299)),
         Best_Global_Response_Times    => 
            ((Referenced_Event => initialnode1,
              Time_Value       => 3.648E-04)),
         Jitters                       => 
            ((Referenced_Event => initialnode1,
              Time_Value       => 0.006934))),
        (Type                          => Timing_Result,
         Event_Name                    => odom3__internal_event_2,
         Num_Of_Suspensions            => 0,
         Worst_Blocking_Time           => 0.000,
         Worst_Global_Response_Times   => 
            ((Referenced_Event => initialnode1,
              Time_Value       => 0.059332)),
         Best_Global_Response_Times    => 
            ((Referenced_Event => initialnode1,
              Time_Value       => 0.001200)),
         Jitters                       => 
            ((Referenced_Event => initialnode1,
              Time_Value       => 0.058131)))));

Transaction (
   Name     => mbnav1,
   Results  => 
       ((Type                          => Timing_Result,
         Event_Name                    => mbnav1__internal_event_1,
         Num_Of_Suspensions            => 0,
         Worst_Blocking_Time           => 0.000,
         Worst_Global_Response_Times   => 
            ((Referenced_Event => initialnode1,
              Time_Value       => 0.009737)),
         Best_Global_Response_Times    => 
            ((Referenced_Event => initialnode1,
              Time_Value       => 8.568E-04)),
         Jitters                       => 
            ((Referenced_Event => initialnode1,
              Time_Value       => 0.008880))),
        (Type                          => Timing_Result,
         Event_Name                    => mbnav1__internal_event_2,
         Num_Of_Suspensions            => 0,
         Worst_Blocking_Time           => 0.000,
         Worst_Global_Response_Times   => 
            ((Referenced_Event => initialnode1,
              Time_Value       => 0.061770)),
         Best_Global_Response_Times    => 
            ((Referenced_Event => initialnode1,
              Time_Value       => 0.001692)),
         Jitters                       => 
            ((Referenced_Event => initialnode1,
              Time_Value       => 0.060077)))));

Transaction (
   Name     => triggerglobalplan3,
   Results  => 
       ((Type                          => Timing_Result,
         Event_Name                    => triggerglobalplan3__internal_event_1,
         Num_Of_Suspensions            => 0,
         Worst_Blocking_Time           => 0.000,
         Worst_Global_Response_Times   => 
            ((Referenced_Event => initialnode1,
              Time_Value       => 0.009737)),
         Best_Global_Response_Times    => 
            ((Referenced_Event => initialnode1,
              Time_Value       => 9.566E-04)),
         Jitters                       => 
            ((Referenced_Event => initialnode1,
              Time_Value       => 0.008780)))));

Transaction (
   Name     => lasergm2,
   Results  => 
       ((Type                          => Timing_Result,
         Event_Name                    => lasergm2__internal_event_1,
         Num_Of_Suspensions            => 0,
         Worst_Blocking_Time           => 0.000,
         Worst_Global_Response_Times   => 
            ((Referenced_Event => initialnode1,
              Time_Value       => 0.007299)),
         Best_Global_Response_Times    => 
            ((Referenced_Event => initialnode1,
              Time_Value       => 8.606E-05)),
         Jitters                       => 
            ((Referenced_Event => initialnode1,
              Time_Value       => 0.007213))),
        (Type                          => Timing_Result,
         Event_Name                    => lasergm2__internal_event_2,
         Num_Of_Suspensions            => 0,
         Worst_Blocking_Time           => 0.000,
         Worst_Global_Response_Times   => 
            ((Referenced_Event => initialnode1,
              Time_Value       => 0.060309)),
         Best_Global_Response_Times    => 
            ((Referenced_Event => initialnode1,
              Time_Value       => 9.217E-04)),
         Jitters                       => 
            ((Referenced_Event => initialnode1,
              Time_Value       => 0.059387)))));

Transaction (
   Name     => lasergm3,
   Results  => 
       ((Type                          => Timing_Result,
         Event_Name                    => lasergm3__internal_event_1,
         Num_Of_Suspensions            => 0,
         Worst_Blocking_Time           => 0.000,
         Worst_Global_Response_Times   => 
            ((Referenced_Event => initialnode1,
              Time_Value       => 0.007299)),
         Best_Global_Response_Times    => 
            ((Referenced_Event => initialnode1,
              Time_Value       => 8.606E-05)),
         Jitters                       => 
            ((Referenced_Event => initialnode1,
              Time_Value       => 0.007213))),
        (Type                          => Timing_Result,
         Event_Name                    => lasergm3__internal_event_2,
         Num_Of_Suspensions            => 0,
         Worst_Blocking_Time           => 0.000,
         Worst_Global_Response_Times   => 
            ((Referenced_Event => initialnode1,
              Time_Value       => 0.085776)),
         Best_Global_Response_Times    => 
            ((Referenced_Event => initialnode1,
              Time_Value       => 0.002518)),
         Jitters                       => 
            ((Referenced_Event => initialnode1,
              Time_Value       => 0.083257))),
        (Type                          => Timing_Result,
         Event_Name                    => lasergm3__internal_event_3,
         Num_Of_Suspensions            => 0,
         Worst_Blocking_Time           => 0.000,
         Worst_Global_Response_Times   => 
            ((Referenced_Event => initialnode1,
              Time_Value       => 0.091638)),
         Best_Global_Response_Times    => 
            ((Referenced_Event => initialnode1,
              Time_Value       => 0.003354)),
         Jitters                       => 
            ((Referenced_Event => initialnode1,
              Time_Value       => 0.088284)))));

Transaction (
   Name     => gmcon2,
   Results  => 
       ((Type                          => Timing_Result,
         Event_Name                    => gmcon2__internal_event_1,
         Num_Of_Suspensions            => 0,
         Worst_Blocking_Time           => 0.000,
         Worst_Global_Response_Times   => 
            ((Referenced_Event => initialnode1,
              Time_Value       => 0.481554)),
         Best_Global_Response_Times    => 
            ((Referenced_Event => initialnode1,
              Time_Value       => 5.206E-04)),
         Jitters                       => 
            ((Referenced_Event => initialnode1,
              Time_Value       => 0.481033))),
        (Type                          => Timing_Result,
         Event_Name                    => gmcon2__internal_event_2,
         Num_Of_Suspensions            => 0,
         Worst_Blocking_Time           => 0.000,
         Worst_Global_Response_Times   => 
            ((Referenced_Event => initialnode1,
              Time_Value       => 0.534683)),
         Best_Global_Response_Times    => 
            ((Referenced_Event => initialnode1,
              Time_Value       => 0.002633)),
         Jitters                       => 
            ((Referenced_Event => initialnode1,
              Time_Value       => 0.532050)))));

Transaction (
   Name     => lasermb1,
   Results  => 
       ((Type                          => Timing_Result,
         Event_Name                    => lasermb1__internal_event_1,
         Num_Of_Suspensions            => 0,
         Worst_Blocking_Time           => 0.000,
         Worst_Global_Response_Times   => 
            ((Referenced_Event => initialnode1,
              Time_Value       => 0.007299)),
         Best_Global_Response_Times    => 
            ((Referenced_Event => initialnode1,
              Time_Value       => 8.606E-05)),
         Jitters                       => 
            ((Referenced_Event => initialnode1,
              Time_Value       => 0.007213))),
        (Type                          => Timing_Result,
         Event_Name                    => lasermb1__internal_event_2,
         Num_Of_Suspensions            => 0,
         Worst_Blocking_Time           => 0.000,
         Worst_Global_Response_Times   => 
            ((Referenced_Event => initialnode1,
              Time_Value       => 0.060309)),
         Best_Global_Response_Times    => 
            ((Referenced_Event => initialnode1,
              Time_Value       => 9.217E-04)),
         Jitters                       => 
            ((Referenced_Event => initialnode1,
              Time_Value       => 0.059387)))));

Transaction (
   Name     => gmmap3,
   Results  => 
       ((Type                          => Timing_Result,
         Event_Name                    => gmmap3__internal_event_1,
         Num_Of_Suspensions            => 0,
         Worst_Blocking_Time           => 0.000,
         Worst_Global_Response_Times   => 
            ((Referenced_Event => initialnode1,
              Time_Value       => 0.486477)),
         Best_Global_Response_Times    => 
            ((Referenced_Event => initialnode1,
              Time_Value       => 0.420006)),
         Jitters                       => 
            ((Referenced_Event => initialnode1,
              Time_Value       => 0.066471))),
        (Type                          => Timing_Result,
         Event_Name                    => gmmap3__internal_event_2,
         Num_Of_Suspensions            => 0,
         Worst_Blocking_Time           => 0.000,
         Worst_Global_Response_Times   => 
            ((Referenced_Event => initialnode1,
              Time_Value       => 0.493316)),
         Best_Global_Response_Times    => 
            ((Referenced_Event => initialnode1,
              Time_Value       => 0.420841)),
         Jitters                       => 
            ((Referenced_Event => initialnode1,
              Time_Value       => 0.072475)))));

Transaction (
   Name     => odommb2,
   Results  => 
       ((Type                          => Timing_Result,
         Event_Name                    => odommb2__internal_event_1,
         Num_Of_Suspensions            => 0,
         Worst_Blocking_Time           => 0.000,
         Worst_Global_Response_Times   => 
            ((Referenced_Event => initialnode1,
              Time_Value       => 0.007299)),
         Best_Global_Response_Times    => 
            ((Referenced_Event => initialnode1,
              Time_Value       => 3.648E-04)),
         Jitters                       => 
            ((Referenced_Event => initialnode1,
              Time_Value       => 0.006934))),
        (Type                          => Timing_Result,
         Event_Name                    => odommb2__internal_event_2,
         Num_Of_Suspensions            => 0,
         Worst_Blocking_Time           => 0.000,
         Worst_Global_Response_Times   => 
            ((Referenced_Event => initialnode1,
              Time_Value       => 0.059332)),
         Best_Global_Response_Times    => 
            ((Referenced_Event => initialnode1,
              Time_Value       => 0.001200)),
         Jitters                       => 
            ((Referenced_Event => initialnode1,
              Time_Value       => 0.058131)))));

Transaction (
   Name     => gmmap1,
   Results  => 
       ((Type                          => Timing_Result,
         Event_Name                    => gmmap1__internal_event_1,
         Num_Of_Suspensions            => 0,
         Worst_Blocking_Time           => 0.000,
         Worst_Global_Response_Times   => 
            ((Referenced_Event => initialnode1,
              Time_Value       => 0.523173)),
         Best_Global_Response_Times    => 
            ((Referenced_Event => initialnode1,
              Time_Value       => 0.420006)),
         Jitters                       => 
            ((Referenced_Event => initialnode1,
              Time_Value       => 0.103167))),
        (Type                          => Timing_Result,
         Event_Name                    => gmmap1__internal_event_2,
         Num_Of_Suspensions            => 0,
         Worst_Blocking_Time           => 0.000,
         Worst_Global_Response_Times   => 
            ((Referenced_Event => initialnode1,
              Time_Value       => 0.530012)),
         Best_Global_Response_Times    => 
            ((Referenced_Event => initialnode1,
              Time_Value       => 0.420841)),
         Jitters                       => 
            ((Referenced_Event => initialnode1,
              Time_Value       => 0.109171)))));

Transaction (
   Name     => mojo_framesmb1,
   Results  => 
       ((Type                          => Timing_Result,
         Event_Name                    => mojo_framesmb1__internal_event_1,
         Num_Of_Suspensions            => 0,
         Worst_Blocking_Time           => 0.000,
         Worst_Global_Response_Times   => 
            ((Referenced_Event => initialnode1,
              Time_Value       => 0.012544)),
         Best_Global_Response_Times    => 
            ((Referenced_Event => initialnode1,
              Time_Value       => 3.632E-04)),
         Jitters                       => 
            ((Referenced_Event => initialnode1,
              Time_Value       => 0.012181))),
        (Type                          => Timing_Result,
         Event_Name                    => mojo_framesmb1__internal_event_2,
         Num_Of_Suspensions            => 0,
         Worst_Blocking_Time           => 0.000,
         Worst_Global_Response_Times   => 
            ((Referenced_Event => initialnode1,
              Time_Value       => 0.019383)),
         Best_Global_Response_Times    => 
            ((Referenced_Event => initialnode1,
              Time_Value       => 0.001199)),
         Jitters                       => 
            ((Referenced_Event => initialnode1,
              Time_Value       => 0.018184)))));

Transaction (
   Name     => mojo_framesmb2,
   Results  => 
       ((Type                          => Timing_Result,
         Event_Name                    => mojo_framesmb2__internal_event_1,
         Num_Of_Suspensions            => 0,
         Worst_Blocking_Time           => 0.000,
         Worst_Global_Response_Times   => 
            ((Referenced_Event => initialnode1,
              Time_Value       => 0.012544)),
         Best_Global_Response_Times    => 
            ((Referenced_Event => initialnode1,
              Time_Value       => 3.632E-04)),
         Jitters                       => 
            ((Referenced_Event => initialnode1,
              Time_Value       => 0.012181))),
        (Type                          => Timing_Result,
         Event_Name                    => mojo_framesmb2__internal_event_2,
         Num_Of_Suspensions            => 0,
         Worst_Blocking_Time           => 0.000,
         Worst_Global_Response_Times   => 
            ((Referenced_Event => initialnode1,
              Time_Value       => 0.064577)),
         Best_Global_Response_Times    => 
            ((Referenced_Event => initialnode1,
              Time_Value       => 0.001199)),
         Jitters                       => 
            ((Referenced_Event => initialnode1,
              Time_Value       => 0.063378)))));

Transaction (
   Name     => mojo_framesgm1,
   Results  => 
       ((Type                          => Timing_Result,
         Event_Name                    => mojo_framesgm1__internal_event_1,
         Num_Of_Suspensions            => 0,
         Worst_Blocking_Time           => 0.000,
         Worst_Global_Response_Times   => 
            ((Referenced_Event => initialnode1,
              Time_Value       => 0.012544)),
         Best_Global_Response_Times    => 
            ((Referenced_Event => initialnode1,
              Time_Value       => 3.632E-04)),
         Jitters                       => 
            ((Referenced_Event => initialnode1,
              Time_Value       => 0.012181))),
        (Type                          => Timing_Result,
         Event_Name                    => mojo_framesgm1__internal_event_2,
         Num_Of_Suspensions            => 0,
         Worst_Blocking_Time           => 0.000,
         Worst_Global_Response_Times   => 
            ((Referenced_Event => initialnode1,
              Time_Value       => 0.064577)),
         Best_Global_Response_Times    => 
            ((Referenced_Event => initialnode1,
              Time_Value       => 0.001199)),
         Jitters                       => 
            ((Referenced_Event => initialnode1,
              Time_Value       => 0.063378)))));

Transaction (
   Name     => gmcon3,
   Results  => 
       ((Type                          => Timing_Result,
         Event_Name                    => gmcon3__internal_event_1,
         Num_Of_Suspensions            => 0,
         Worst_Blocking_Time           => 0.000,
         Worst_Global_Response_Times   => 
            ((Referenced_Event => initialnode1,
              Time_Value       => 0.481554)),
         Best_Global_Response_Times    => 
            ((Referenced_Event => initialnode1,
              Time_Value       => 5.206E-04)),
         Jitters                       => 
            ((Referenced_Event => initialnode1,
              Time_Value       => 0.481033))),
        (Type                          => Timing_Result,
         Event_Name                    => gmcon3__internal_event_2,
         Num_Of_Suspensions            => 0,
         Worst_Blocking_Time           => 0.000,
         Worst_Global_Response_Times   => 
            ((Referenced_Event => initialnode1,
              Time_Value       => 0.534683)),
         Best_Global_Response_Times    => 
            ((Referenced_Event => initialnode1,
              Time_Value       => 0.002633)),
         Jitters                       => 
            ((Referenced_Event => initialnode1,
              Time_Value       => 0.532050)))));

Transaction (
   Name     => mojo_framesgm2,
   Results  => 
       ((Type                          => Timing_Result,
         Event_Name                    => mojo_framesgm2__internal_event_1,
         Num_Of_Suspensions            => 0,
         Worst_Blocking_Time           => 0.000,
         Worst_Global_Response_Times   => 
            ((Referenced_Event => initialnode1,
              Time_Value       => 0.012544)),
         Best_Global_Response_Times    => 
            ((Referenced_Event => initialnode1,
              Time_Value       => 3.632E-04)),
         Jitters                       => 
            ((Referenced_Event => initialnode1,
              Time_Value       => 0.012181))),
        (Type                          => Timing_Result,
         Event_Name                    => mojo_framesgm2__internal_event_2,
         Num_Of_Suspensions            => 0,
         Worst_Blocking_Time           => 0.000,
         Worst_Global_Response_Times   => 
            ((Referenced_Event => initialnode1,
              Time_Value       => 0.064577)),
         Best_Global_Response_Times    => 
            ((Referenced_Event => initialnode1,
              Time_Value       => 0.001199)),
         Jitters                       => 
            ((Referenced_Event => initialnode1,
              Time_Value       => 0.063378)))));

Transaction (
   Name     => mojo_framesgm3,
   Results  => 
       ((Type                          => Timing_Result,
         Event_Name                    => mojo_framesgm3__internal_event_1,
         Num_Of_Suspensions            => 0,
         Worst_Blocking_Time           => 0.000,
         Worst_Global_Response_Times   => 
            ((Referenced_Event => initialnode1,
              Time_Value       => 0.012544)),
         Best_Global_Response_Times    => 
            ((Referenced_Event => initialnode1,
              Time_Value       => 3.632E-04)),
         Jitters                       => 
            ((Referenced_Event => initialnode1,
              Time_Value       => 0.012181))),
        (Type                          => Timing_Result,
         Event_Name                    => mojo_framesgm3__internal_event_2,
         Num_Of_Suspensions            => 0,
         Worst_Blocking_Time           => 0.000,
         Worst_Global_Response_Times   => 
            ((Referenced_Event => initialnode1,
              Time_Value       => 0.064577)),
         Best_Global_Response_Times    => 
            ((Referenced_Event => initialnode1,
              Time_Value       => 0.001199)),
         Jitters                       => 
            ((Referenced_Event => initialnode1,
              Time_Value       => 0.063378)))));

Transaction (
   Name     => triggerglobalplan2,
   Results  => 
       ((Type                          => Timing_Result,
         Event_Name                    => triggerglobalplan2__internal_event_1,
         Num_Of_Suspensions            => 0,
         Worst_Blocking_Time           => 0.000,
         Worst_Global_Response_Times   => 
            ((Referenced_Event => initialnode1,
              Time_Value       => 0.009737)),
         Best_Global_Response_Times    => 
            ((Referenced_Event => initialnode1,
              Time_Value       => 9.566E-04)),
         Jitters                       => 
            ((Referenced_Event => initialnode1,
              Time_Value       => 0.008780)))));

Transaction (
   Name     => lasermb2,
   Results  => 
       ((Type                          => Timing_Result,
         Event_Name                    => lasermb2__internal_event_1,
         Num_Of_Suspensions            => 0,
         Worst_Blocking_Time           => 0.000,
         Worst_Global_Response_Times   => 
            ((Referenced_Event => initialnode1,
              Time_Value       => 0.007299)),
         Best_Global_Response_Times    => 
            ((Referenced_Event => initialnode1,
              Time_Value       => 8.606E-05)),
         Jitters                       => 
            ((Referenced_Event => initialnode1,
              Time_Value       => 0.007213))),
        (Type                          => Timing_Result,
         Event_Name                    => lasermb2__internal_event_2,
         Num_Of_Suspensions            => 0,
         Worst_Blocking_Time           => 0.000,
         Worst_Global_Response_Times   => 
            ((Referenced_Event => initialnode1,
              Time_Value       => 0.060309)),
         Best_Global_Response_Times    => 
            ((Referenced_Event => initialnode1,
              Time_Value       => 9.217E-04)),
         Jitters                       => 
            ((Referenced_Event => initialnode1,
              Time_Value       => 0.059387)))));

Transaction (
   Name     => lasergm1,
   Results  => 
       ((Type                          => Timing_Result,
         Event_Name                    => lasergm1__internal_event_1,
         Num_Of_Suspensions            => 0,
         Worst_Blocking_Time           => 0.000,
         Worst_Global_Response_Times   => 
            ((Referenced_Event => initialnode1,
              Time_Value       => 0.007299)),
         Best_Global_Response_Times    => 
            ((Referenced_Event => initialnode1,
              Time_Value       => 8.606E-05)),
         Jitters                       => 
            ((Referenced_Event => initialnode1,
              Time_Value       => 0.007213))),
        (Type                          => Timing_Result,
         Event_Name                    => lasergm1__internal_event_2,
         Num_Of_Suspensions            => 0,
         Worst_Blocking_Time           => 0.000,
         Worst_Global_Response_Times   => 
            ((Referenced_Event => initialnode1,
              Time_Value       => 0.060309)),
         Best_Global_Response_Times    => 
            ((Referenced_Event => initialnode1,
              Time_Value       => 9.217E-04)),
         Jitters                       => 
            ((Referenced_Event => initialnode1,
              Time_Value       => 0.059387)))));

Transaction (
   Name     => odommb3,
   Results  => 
       ((Type                          => Timing_Result,
         Event_Name                    => odommb3__internal_event_1,
         Num_Of_Suspensions            => 0,
         Worst_Blocking_Time           => 0.000,
         Worst_Global_Response_Times   => 
            ((Referenced_Event => initialnode1,
              Time_Value       => 0.007299)),
         Best_Global_Response_Times    => 
            ((Referenced_Event => initialnode1,
              Time_Value       => 3.648E-04)),
         Jitters                       => 
            ((Referenced_Event => initialnode1,
              Time_Value       => 0.006934))),
        (Type                          => Timing_Result,
         Event_Name                    => odommb3__internal_event_2,
         Num_Of_Suspensions            => 0,
         Worst_Blocking_Time           => 0.000,
         Worst_Global_Response_Times   => 
            ((Referenced_Event => initialnode1,
              Time_Value       => 0.059332)),
         Best_Global_Response_Times    => 
            ((Referenced_Event => initialnode1,
              Time_Value       => 0.001200)),
         Jitters                       => 
            ((Referenced_Event => initialnode1,
              Time_Value       => 0.058131)))));

Transaction (
   Name     => mapstitch,
   Results  => 
       ((Type                          => Timing_Result,
         Event_Name                    => mapstitch__internal_event_1,
         Num_Of_Suspensions            => 0,
         Worst_Blocking_Time           => 0.000,
         Worst_Global_Response_Times   => 
            ((Referenced_Event => initialnode1,
              Time_Value       => 3.450)),
         Best_Global_Response_Times    => 
            ((Referenced_Event => initialnode1,
              Time_Value       => 1.710)),
         Jitters                       => 
            ((Referenced_Event => initialnode1,
              Time_Value       => 1.740))),
        (Type                          => Timing_Result,
         Event_Name                    => mapstitch__internal_event_2,
         Num_Of_Suspensions            => 0,
         Worst_Blocking_Time           => 0.000,
         Worst_Global_Response_Times   => 
            ((Referenced_Event => initialnode1,
              Time_Value       => 6.900)),
         Best_Global_Response_Times    => 
            ((Referenced_Event => initialnode1,
              Time_Value       => 3.421)),
         Jitters                       => 
            ((Referenced_Event => initialnode1,
              Time_Value       => 3.479)))));

Transaction (
   Name     => gmmap2,
   Results  => 
       ((Type                          => Timing_Result,
         Event_Name                    => gmmap2__internal_event_1,
         Num_Of_Suspensions            => 0,
         Worst_Blocking_Time           => 0.000,
         Worst_Global_Response_Times   => 
            ((Referenced_Event => initialnode1,
              Time_Value       => 0.486477)),
         Best_Global_Response_Times    => 
            ((Referenced_Event => initialnode1,
              Time_Value       => 0.420006)),
         Jitters                       => 
            ((Referenced_Event => initialnode1,
              Time_Value       => 0.066471))),
        (Type                          => Timing_Result,
         Event_Name                    => gmmap2__internal_event_2,
         Num_Of_Suspensions            => 0,
         Worst_Blocking_Time           => 0.000,
         Worst_Global_Response_Times   => 
            ((Referenced_Event => initialnode1,
              Time_Value       => 0.493316)),
         Best_Global_Response_Times    => 
            ((Referenced_Event => initialnode1,
              Time_Value       => 0.420841)),
         Jitters                       => 
            ((Referenced_Event => initialnode1,
              Time_Value       => 0.072475)))));

Transaction (
   Name     => odom1,
   Results  => 
       ((Type                          => Timing_Result,
         Event_Name                    => odom1__internal_event_1,
         Num_Of_Suspensions            => 0,
         Worst_Blocking_Time           => 0.000,
         Worst_Global_Response_Times   => 
            ((Referenced_Event => initialnode1,
              Time_Value       => 0.007299)),
         Best_Global_Response_Times    => 
            ((Referenced_Event => initialnode1,
              Time_Value       => 3.648E-04)),
         Jitters                       => 
            ((Referenced_Event => initialnode1,
              Time_Value       => 0.006934))),
        (Type                          => Timing_Result,
         Event_Name                    => odom1__internal_event_2,
         Num_Of_Suspensions            => 0,
         Worst_Blocking_Time           => 0.000,
         Worst_Global_Response_Times   => 
            ((Referenced_Event => initialnode1,
              Time_Value       => 0.014138)),
         Best_Global_Response_Times    => 
            ((Referenced_Event => initialnode1,
              Time_Value       => 0.001200)),
         Jitters                       => 
            ((Referenced_Event => initialnode1,
              Time_Value       => 0.012937)))));

Transaction (
   Name     => mbnav3,
   Results  => 
       ((Type                          => Timing_Result,
         Event_Name                    => mbnav3__internal_event_1,
         Num_Of_Suspensions            => 0,
         Worst_Blocking_Time           => 0.000,
         Worst_Global_Response_Times   => 
            ((Referenced_Event => initialnode1,
              Time_Value       => 0.009737)),
         Best_Global_Response_Times    => 
            ((Referenced_Event => initialnode1,
              Time_Value       => 8.568E-04)),
         Jitters                       => 
            ((Referenced_Event => initialnode1,
              Time_Value       => 0.008880))),
        (Type                          => Timing_Result,
         Event_Name                    => mbnav3__internal_event_2,
         Num_Of_Suspensions            => 0,
         Worst_Blocking_Time           => 0.000,
         Worst_Global_Response_Times   => 
            ((Referenced_Event => initialnode1,
              Time_Value       => 0.061770)),
         Best_Global_Response_Times    => 
            ((Referenced_Event => initialnode1,
              Time_Value       => 0.001692)),
         Jitters                       => 
            ((Referenced_Event => initialnode1,
              Time_Value       => 0.060077)))));

Processing_Resource (
   Name     => station_hp,
   Results  => 
       ((Type   => Utilization,
         Total  => 65.02%)));

Processing_Resource (
   Name     => robot_pc1,
   Results  => 
       ((Type   => Utilization,
         Total  => 15.75%)));

Processing_Resource (
   Name     => station_t420_core2_thread2,
   Results  => 
       ((Type   => Utilization,
         Total  => 50.12%)));

Processing_Resource (
   Name     => station_hp4,
   Results  => 
       ((Type   => Utilization,
         Total  => 8.62%)));

Processing_Resource (
   Name     => station_t420_thead2,
   Results  => 
       ((Type   => Utilization,
         Total  => 23.29%)));

Processing_Resource (
   Name     => station_hp3,
   Results  => 
       ((Type   => Utilization,
         Total  => 58.84%)));

Processing_Resource (
   Name     => station_t420,
   Results  => 
       ((Type   => Utilization,
         Total  => 23.29%)));

Processing_Resource (
   Name     => station_hp2,
   Results  => 
       ((Type   => Utilization,
         Total  => 58.84%)));

Processing_Resource (
   Name     => station_t420_core2,
   Results  => 
       ((Type   => Utilization,
         Total  => 23.29%)));

