Real_Time_Situation (
   Generation_Tool    => "MAST Schedulability Analysis, version 1.4.0.0",
   Generation_Profile => "E:\modeling_tools\marte_modeling_masrte2mast_newersion29012014\marte_modeling_masrte2mast\mast\mast_analysis.exe offset_based_optimized -v -c -p E:\modeling_tools\marte_modeling_masrte2mast_newersion29012014\marte_modeling_masrte2mast\workspace2\workspace\Mojo_Nav3Robots_3Nodes\out-m2m\model.mast E:\modeling_tools\marte_modeling_masrte2mast_newersion29012014\marte_modeling_masrte2mast\workspace2\workspace\Mojo_Nav3Robots_3Nodes\out-m2m\model.mast.out",
   Generation_Date    => 2014-03-31T16:45:06);

Transaction (
   Name     => odomgm1,
   Results  => 
       ((Type                          => Timing_Result,
         Event_Name                    => odomgm1__internal_event_1,
         Num_Of_Suspensions            => 0,
         Worst_Blocking_Time           => 0.000,
         Worst_Global_Response_Times   => 
            ((Referenced_Event => initialnode1,
              Time_Value       => 0.002433)),
         Best_Global_Response_Times    => 
            ((Referenced_Event => initialnode1,
              Time_Value       => 3.648E-04)),
         Jitters                       => 
            ((Referenced_Event => initialnode1,
              Time_Value       => 0.002068))),
        (Type                          => Timing_Result,
         Event_Name                    => odomgm1__internal_event_2,
         Num_Of_Suspensions            => 0,
         Worst_Blocking_Time           => 0.000,
         Worst_Global_Response_Times   => 
            ((Referenced_Event => initialnode1,
              Time_Value       => 0.015134)),
         Best_Global_Response_Times    => 
            ((Referenced_Event => initialnode1,
              Time_Value       => 0.001200)),
         Jitters                       => 
            ((Referenced_Event => initialnode1,
              Time_Value       => 0.013934)))));

Transaction (
   Name     => gmmap1,
   Results  => 
       ((Type                          => Timing_Result,
         Event_Name                    => gmmap1__internal_event_1,
         Num_Of_Suspensions            => 0,
         Worst_Blocking_Time           => 0.000,
         Worst_Global_Response_Times   => 
            ((Referenced_Event => initialnode1,
              Time_Value       => 0.486477)),
         Best_Global_Response_Times    => 
            ((Referenced_Event => initialnode1,
              Time_Value       => 0.420006)),
         Jitters                       => 
            ((Referenced_Event => initialnode1,
              Time_Value       => 0.066471))),
        (Type                          => Timing_Result,
         Event_Name                    => gmmap1__internal_event_2,
         Num_Of_Suspensions            => 0,
         Worst_Blocking_Time           => 0.000,
         Worst_Global_Response_Times   => 
            ((Referenced_Event => initialnode1,
              Time_Value       => 0.501611)),
         Best_Global_Response_Times    => 
            ((Referenced_Event => initialnode1,
              Time_Value       => 0.420841)),
         Jitters                       => 
            ((Referenced_Event => initialnode1,
              Time_Value       => 0.080770)))));

Transaction (
   Name     => gmcon3,
   Results  => 
       ((Type                          => Timing_Result,
         Event_Name                    => gmcon3__internal_event_1,
         Num_Of_Suspensions            => 0,
         Worst_Blocking_Time           => 0.000,
         Worst_Global_Response_Times   => 
            ((Referenced_Event => initialnode1,
              Time_Value       => 0.498163)),
         Best_Global_Response_Times    => 
            ((Referenced_Event => initialnode1,
              Time_Value       => 5.206E-04)),
         Jitters                       => 
            ((Referenced_Event => initialnode1,
              Time_Value       => 0.497642)))));

Transaction (
   Name     => mojo_frames_gm2,
   Results  => 
       ((Type                          => Timing_Result,
         Event_Name                    => mojo_frames_gm2__internal_event_1,
         Num_Of_Suspensions            => 0,
         Worst_Blocking_Time           => 0.000,
         Worst_Global_Response_Times   => 
            ((Referenced_Event => initialnode1,
              Time_Value       => 0.011203)),
         Best_Global_Response_Times    => 
            ((Referenced_Event => initialnode1,
              Time_Value       => 3.632E-04)),
         Jitters                       => 
            ((Referenced_Event => initialnode1,
              Time_Value       => 0.010839))),
        (Type                          => Timing_Result,
         Event_Name                    => mojo_frames_gm2__internal_event_2,
         Num_Of_Suspensions            => 0,
         Worst_Blocking_Time           => 0.000,
         Worst_Global_Response_Times   => 
            ((Referenced_Event => initialnode1,
              Time_Value       => 0.308140)),
         Best_Global_Response_Times    => 
            ((Referenced_Event => initialnode1,
              Time_Value       => 3.986E-04)),
         Jitters                       => 
            ((Referenced_Event => initialnode1,
              Time_Value       => 0.307742))),
        (Type                          => Timing_Result,
         Event_Name                    => mojo_frames_gm2__internal_event_3,
         Num_Of_Suspensions            => 0,
         Worst_Blocking_Time           => 0.000,
         Worst_Global_Response_Times   => 
            ((Referenced_Event => initialnode1,
              Time_Value       => 0.795594)),
         Best_Global_Response_Times    => 
            ((Referenced_Event => initialnode1,
              Time_Value       => 0.001234)),
         Jitters                       => 
            ((Referenced_Event => initialnode1,
              Time_Value       => 0.794360)))));

Transaction (
   Name     => lasermb3,
   Results  => 
       ((Type                          => Timing_Result,
         Event_Name                    => lasermb3__internal_event_1,
         Num_Of_Suspensions            => 0,
         Worst_Blocking_Time           => 0.000,
         Worst_Global_Response_Times   => 
            ((Referenced_Event => initialnode1,
              Time_Value       => 0.002533)),
         Best_Global_Response_Times    => 
            ((Referenced_Event => initialnode1,
              Time_Value       => 1.861E-04)),
         Jitters                       => 
            ((Referenced_Event => initialnode1,
              Time_Value       => 0.002347))),
        (Type                          => Timing_Result,
         Event_Name                    => lasermb3__internal_event_2,
         Num_Of_Suspensions            => 0,
         Worst_Blocking_Time           => 0.000,
         Worst_Global_Response_Times   => 
            ((Referenced_Event => initialnode1,
              Time_Value       => 0.021203)),
         Best_Global_Response_Times    => 
            ((Referenced_Event => initialnode1,
              Time_Value       => 0.001022)),
         Jitters                       => 
            ((Referenced_Event => initialnode1,
              Time_Value       => 0.020181)))));

Transaction (
   Name     => gmmap3,
   Results  => 
       ((Type                          => Timing_Result,
         Event_Name                    => gmmap3__internal_event_1,
         Num_Of_Suspensions            => 0,
         Worst_Blocking_Time           => 0.000,
         Worst_Global_Response_Times   => 
            ((Referenced_Event => initialnode1,
              Time_Value       => 0.503633)),
         Best_Global_Response_Times    => 
            ((Referenced_Event => initialnode1,
              Time_Value       => 0.420006)),
         Jitters                       => 
            ((Referenced_Event => initialnode1,
              Time_Value       => 0.083627))),
        (Type                          => Timing_Result,
         Event_Name                    => gmmap3__internal_event_2,
         Num_Of_Suspensions            => 0,
         Worst_Blocking_Time           => 0.000,
         Worst_Global_Response_Times   => 
            ((Referenced_Event => initialnode1,
              Time_Value       => 0.518767)),
         Best_Global_Response_Times    => 
            ((Referenced_Event => initialnode1,
              Time_Value       => 0.420841)),
         Jitters                       => 
            ((Referenced_Event => initialnode1,
              Time_Value       => 0.097926)))));

Transaction (
   Name     => mojo_frames_gm1,
   Results  => 
       ((Type                          => Timing_Result,
         Event_Name                    => mojo_frames_gm1__internal_event_1,
         Num_Of_Suspensions            => 0,
         Worst_Blocking_Time           => 0.000,
         Worst_Global_Response_Times   => 
            ((Referenced_Event => initialnode1,
              Time_Value       => 0.016965)),
         Best_Global_Response_Times    => 
            ((Referenced_Event => initialnode1,
              Time_Value       => 3.632E-04)),
         Jitters                       => 
            ((Referenced_Event => initialnode1,
              Time_Value       => 0.016601))),
        (Type                          => Timing_Result,
         Event_Name                    => mojo_frames_gm1__internal_event_2,
         Num_Of_Suspensions            => 0,
         Worst_Blocking_Time           => 0.000,
         Worst_Global_Response_Times   => 
            ((Referenced_Event => initialnode1,
              Time_Value       => 0.313902)),
         Best_Global_Response_Times    => 
            ((Referenced_Event => initialnode1,
              Time_Value       => 3.986E-04)),
         Jitters                       => 
            ((Referenced_Event => initialnode1,
              Time_Value       => 0.313504))),
        (Type                          => Timing_Result,
         Event_Name                    => mojo_frames_gm1__internal_event_3,
         Num_Of_Suspensions            => 0,
         Worst_Blocking_Time           => 0.000,
         Worst_Global_Response_Times   => 
            ((Referenced_Event => initialnode1,
              Time_Value       => 0.323174)),
         Best_Global_Response_Times    => 
            ((Referenced_Event => initialnode1,
              Time_Value       => 0.001234)),
         Jitters                       => 
            ((Referenced_Event => initialnode1,
              Time_Value       => 0.321940)))));

Transaction (
   Name     => odommb1,
   Results  => 
       ((Type                          => Timing_Result,
         Event_Name                    => odommb1__internal_event_1,
         Num_Of_Suspensions            => 0,
         Worst_Blocking_Time           => 0.000,
         Worst_Global_Response_Times   => 
            ((Referenced_Event => initialnode1,
              Time_Value       => 0.002433)),
         Best_Global_Response_Times    => 
            ((Referenced_Event => initialnode1,
              Time_Value       => 3.648E-04)),
         Jitters                       => 
            ((Referenced_Event => initialnode1,
              Time_Value       => 0.002068))),
        (Type                          => Timing_Result,
         Event_Name                    => odommb1__internal_event_2,
         Num_Of_Suspensions            => 0,
         Worst_Blocking_Time           => 0.000,
         Worst_Global_Response_Times   => 
            ((Referenced_Event => initialnode1,
              Time_Value       => 0.015134)),
         Best_Global_Response_Times    => 
            ((Referenced_Event => initialnode1,
              Time_Value       => 0.001200)),
         Jitters                       => 
            ((Referenced_Event => initialnode1,
              Time_Value       => 0.013934)))));

Transaction (
   Name     => gmcon1,
   Results  => 
       ((Type                          => Timing_Result,
         Event_Name                    => gmcon1__internal_event_1,
         Num_Of_Suspensions            => 0,
         Worst_Blocking_Time           => 0.000,
         Worst_Global_Response_Times   => 
            ((Referenced_Event => initialnode1,
              Time_Value       => 0.481554)),
         Best_Global_Response_Times    => 
            ((Referenced_Event => initialnode1,
              Time_Value       => 5.206E-04)),
         Jitters                       => 
            ((Referenced_Event => initialnode1,
              Time_Value       => 0.481033)))));

Transaction (
   Name     => lasergm2,
   Results  => 
       ((Type                          => Timing_Result,
         Event_Name                    => lasergm2__internal_event_1,
         Num_Of_Suspensions            => 0,
         Worst_Blocking_Time           => 0.000,
         Worst_Global_Response_Times   => 
            ((Referenced_Event => initialnode1,
              Time_Value       => 0.002533)),
         Best_Global_Response_Times    => 
            ((Referenced_Event => initialnode1,
              Time_Value       => 8.606E-05)),
         Jitters                       => 
            ((Referenced_Event => initialnode1,
              Time_Value       => 0.002447))),
        (Type                          => Timing_Result,
         Event_Name                    => lasergm2__internal_event_2,
         Num_Of_Suspensions            => 0,
         Worst_Blocking_Time           => 0.000,
         Worst_Global_Response_Times   => 
            ((Referenced_Event => initialnode1,
              Time_Value       => 0.021203)),
         Best_Global_Response_Times    => 
            ((Referenced_Event => initialnode1,
              Time_Value       => 9.217E-04)),
         Jitters                       => 
            ((Referenced_Event => initialnode1,
              Time_Value       => 0.020281)))));

Transaction (
   Name     => triggerglobalplan1,
   Results  => 
       ((Type                          => Timing_Result,
         Event_Name                    => triggerglobalplan1__internal_event_1,
         Num_Of_Suspensions            => 0,
         Worst_Blocking_Time           => 0.000,
         Worst_Global_Response_Times   => 
            ((Referenced_Event => initialnode1,
              Time_Value       => 0.012661)),
         Best_Global_Response_Times    => 
            ((Referenced_Event => initialnode1,
              Time_Value       => 9.566E-04)),
         Jitters                       => 
            ((Referenced_Event => initialnode1,
              Time_Value       => 0.011704)))));

Transaction (
   Name     => mbnav2,
   Results  => 
       ((Type                          => Timing_Result,
         Event_Name                    => mbnav2__internal_event_1,
         Num_Of_Suspensions            => 0,
         Worst_Blocking_Time           => 0.000,
         Worst_Global_Response_Times   => 
            ((Referenced_Event => initialnode1,
              Time_Value       => 0.010707)),
         Best_Global_Response_Times    => 
            ((Referenced_Event => initialnode1,
              Time_Value       => 0.001687)),
         Jitters                       => 
            ((Referenced_Event => initialnode1,
              Time_Value       => 0.009020))),
        (Type                          => Timing_Result,
         Event_Name                    => mbnav2__internal_event_2,
         Num_Of_Suspensions            => 0,
         Worst_Blocking_Time           => 0.000,
         Worst_Global_Response_Times   => 
            ((Referenced_Event => initialnode1,
              Time_Value       => 0.019102)),
         Best_Global_Response_Times    => 
            ((Referenced_Event => initialnode1,
              Time_Value       => 0.002522)),
         Jitters                       => 
            ((Referenced_Event => initialnode1,
              Time_Value       => 0.016579)))));

Transaction (
   Name     => mbnav1,
   Results  => 
       ((Type                          => Timing_Result,
         Event_Name                    => mbnav1__internal_event_1,
         Num_Of_Suspensions            => 0,
         Worst_Blocking_Time           => 0.000,
         Worst_Global_Response_Times   => 
            ((Referenced_Event => initialnode1,
              Time_Value       => 0.012661)),
         Best_Global_Response_Times    => 
            ((Referenced_Event => initialnode1,
              Time_Value       => 0.001687)),
         Jitters                       => 
            ((Referenced_Event => initialnode1,
              Time_Value       => 0.010974))),
        (Type                          => Timing_Result,
         Event_Name                    => mbnav1__internal_event_2,
         Num_Of_Suspensions            => 0,
         Worst_Blocking_Time           => 0.000,
         Worst_Global_Response_Times   => 
            ((Referenced_Event => initialnode1,
              Time_Value       => 0.031331)),
         Best_Global_Response_Times    => 
            ((Referenced_Event => initialnode1,
              Time_Value       => 0.001792)),
         Jitters                       => 
            ((Referenced_Event => initialnode1,
              Time_Value       => 0.029538)))));

Transaction (
   Name     => odomgm3,
   Results  => 
       ((Type                          => Timing_Result,
         Event_Name                    => odomgm3__internal_event_1,
         Num_Of_Suspensions            => 0,
         Worst_Blocking_Time           => 0.000,
         Worst_Global_Response_Times   => 
            ((Referenced_Event => initialnode1,
              Time_Value       => 0.002533)),
         Best_Global_Response_Times    => 
            ((Referenced_Event => initialnode1,
              Time_Value       => 3.648E-04)),
         Jitters                       => 
            ((Referenced_Event => initialnode1,
              Time_Value       => 0.002168))),
        (Type                          => Timing_Result,
         Event_Name                    => odomgm3__internal_event_2,
         Num_Of_Suspensions            => 0,
         Worst_Blocking_Time           => 0.000,
         Worst_Global_Response_Times   => 
            ((Referenced_Event => initialnode1,
              Time_Value       => 0.299659)),
         Best_Global_Response_Times    => 
            ((Referenced_Event => initialnode1,
              Time_Value       => 3.677E-04)),
         Jitters                       => 
            ((Referenced_Event => initialnode1,
              Time_Value       => 0.299291))),
        (Type                          => Timing_Result,
         Event_Name                    => odomgm3__internal_event_3,
         Num_Of_Suspensions            => 0,
         Worst_Blocking_Time           => 0.000,
         Worst_Global_Response_Times   => 
            ((Referenced_Event => initialnode1,
              Time_Value       => 0.309536)),
         Best_Global_Response_Times    => 
            ((Referenced_Event => initialnode1,
              Time_Value       => 0.001203)),
         Jitters                       => 
            ((Referenced_Event => initialnode1,
              Time_Value       => 0.308333)))));

Transaction (
   Name     => mojo_frames_mb1,
   Results  => 
       ((Type                          => Timing_Result,
         Event_Name                    => mojo_frames_mb1__internal_event_1,
         Num_Of_Suspensions            => 0,
         Worst_Blocking_Time           => 0.000,
         Worst_Global_Response_Times   => 
            ((Referenced_Event => initialnode1,
              Time_Value       => 0.017942)),
         Best_Global_Response_Times    => 
            ((Referenced_Event => initialnode1,
              Time_Value       => 3.632E-04)),
         Jitters                       => 
            ((Referenced_Event => initialnode1,
              Time_Value       => 0.017578))),
        (Type                          => Timing_Result,
         Event_Name                    => mojo_frames_mb1__internal_event_2,
         Num_Of_Suspensions            => 0,
         Worst_Blocking_Time           => 0.000,
         Worst_Global_Response_Times   => 
            ((Referenced_Event => initialnode1,
              Time_Value       => 0.030602)),
         Best_Global_Response_Times    => 
            ((Referenced_Event => initialnode1,
              Time_Value       => 0.001199)),
         Jitters                       => 
            ((Referenced_Event => initialnode1,
              Time_Value       => 0.029403)))));

Transaction (
   Name     => mojo_frames_mb3,
   Results  => 
       ((Type                          => Timing_Result,
         Event_Name                    => mojo_frames_mb3__internal_event_1,
         Num_Of_Suspensions            => 0,
         Worst_Blocking_Time           => 0.000,
         Worst_Global_Response_Times   => 
            ((Referenced_Event => initialnode1,
              Time_Value       => 0.020501)),
         Best_Global_Response_Times    => 
            ((Referenced_Event => initialnode1,
              Time_Value       => 3.632E-04)),
         Jitters                       => 
            ((Referenced_Event => initialnode1,
              Time_Value       => 0.020137))),
        (Type                          => Timing_Result,
         Event_Name                    => mojo_frames_mb3__internal_event_2,
         Num_Of_Suspensions            => 0,
         Worst_Blocking_Time           => 0.000,
         Worst_Global_Response_Times   => 
            ((Referenced_Event => initialnode1,
              Time_Value       => 0.039171)),
         Best_Global_Response_Times    => 
            ((Referenced_Event => initialnode1,
              Time_Value       => 0.001199)),
         Jitters                       => 
            ((Referenced_Event => initialnode1,
              Time_Value       => 0.037972)))));

Transaction (
   Name     => triggerglobalplan3,
   Results  => 
       ((Type                          => Timing_Result,
         Event_Name                    => triggerglobalplan3__internal_event_1,
         Num_Of_Suspensions            => 0,
         Worst_Blocking_Time           => 0.000,
         Worst_Global_Response_Times   => 
            ((Referenced_Event => initialnode1,
              Time_Value       => 0.009737)),
         Best_Global_Response_Times    => 
            ((Referenced_Event => initialnode1,
              Time_Value       => 9.566E-04)),
         Jitters                       => 
            ((Referenced_Event => initialnode1,
              Time_Value       => 0.008780)))));

Transaction (
   Name     => mbnav3,
   Results  => 
       ((Type                          => Timing_Result,
         Event_Name                    => mbnav3__internal_event_1,
         Num_Of_Suspensions            => 0,
         Worst_Blocking_Time           => 0.000,
         Worst_Global_Response_Times   => 
            ((Referenced_Event => initialnode1,
              Time_Value       => 0.009737)),
         Best_Global_Response_Times    => 
            ((Referenced_Event => initialnode1,
              Time_Value       => 8.568E-04)),
         Jitters                       => 
            ((Referenced_Event => initialnode1,
              Time_Value       => 0.008880))),
        (Type                          => Timing_Result,
         Event_Name                    => mbnav3__internal_event_2,
         Num_Of_Suspensions            => 0,
         Worst_Blocking_Time           => 0.000,
         Worst_Global_Response_Times   => 
            ((Referenced_Event => initialnode1,
              Time_Value       => 0.022397)),
         Best_Global_Response_Times    => 
            ((Referenced_Event => initialnode1,
              Time_Value       => 0.001692)),
         Jitters                       => 
            ((Referenced_Event => initialnode1,
              Time_Value       => 0.020705))),
        (Type                          => Timing_Result,
         Event_Name                    => mbnav3__internal_event_3,
         Num_Of_Suspensions            => 0,
         Worst_Blocking_Time           => 0.000,
         Worst_Global_Response_Times   => 
            ((Referenced_Event => initialnode1,
              Time_Value       => 0.041067)),
         Best_Global_Response_Times    => 
            ((Referenced_Event => initialnode1,
              Time_Value       => 0.002528)),
         Jitters                       => 
            ((Referenced_Event => initialnode1,
              Time_Value       => 0.038539)))));

Transaction (
   Name     => lasergm1,
   Results  => 
       ((Type                          => Timing_Result,
         Event_Name                    => lasergm1__internal_event_1,
         Num_Of_Suspensions            => 0,
         Worst_Blocking_Time           => 0.000,
         Worst_Global_Response_Times   => 
            ((Referenced_Event => initialnode1,
              Time_Value       => 0.002433)),
         Best_Global_Response_Times    => 
            ((Referenced_Event => initialnode1,
              Time_Value       => 8.606E-05)),
         Jitters                       => 
            ((Referenced_Event => initialnode1,
              Time_Value       => 0.002347))),
        (Type                          => Timing_Result,
         Event_Name                    => lasergm1__internal_event_2,
         Num_Of_Suspensions            => 0,
         Worst_Blocking_Time           => 0.000,
         Worst_Global_Response_Times   => 
            ((Referenced_Event => initialnode1,
              Time_Value       => 0.015134)),
         Best_Global_Response_Times    => 
            ((Referenced_Event => initialnode1,
              Time_Value       => 9.217E-04)),
         Jitters                       => 
            ((Referenced_Event => initialnode1,
              Time_Value       => 0.014212)))));

Transaction (
   Name     => odommb3,
   Results  => 
       ((Type                          => Timing_Result,
         Event_Name                    => odommb3__internal_event_1,
         Num_Of_Suspensions            => 0,
         Worst_Blocking_Time           => 0.000,
         Worst_Global_Response_Times   => 
            ((Referenced_Event => initialnode1,
              Time_Value       => 0.002533)),
         Best_Global_Response_Times    => 
            ((Referenced_Event => initialnode1,
              Time_Value       => 3.648E-04)),
         Jitters                       => 
            ((Referenced_Event => initialnode1,
              Time_Value       => 0.002168))),
        (Type                          => Timing_Result,
         Event_Name                    => odommb3__internal_event_2,
         Num_Of_Suspensions            => 0,
         Worst_Blocking_Time           => 0.000,
         Worst_Global_Response_Times   => 
            ((Referenced_Event => initialnode1,
              Time_Value       => 0.021203)),
         Best_Global_Response_Times    => 
            ((Referenced_Event => initialnode1,
              Time_Value       => 0.001200)),
         Jitters                       => 
            ((Referenced_Event => initialnode1,
              Time_Value       => 0.020003)))));

Transaction (
   Name     => gmmap2,
   Results  => 
       ((Type                          => Timing_Result,
         Event_Name                    => gmmap2__internal_event_1,
         Num_Of_Suspensions            => 0,
         Worst_Blocking_Time           => 0.000,
         Worst_Global_Response_Times   => 
            ((Referenced_Event => initialnode1,
              Time_Value       => 0.503633)),
         Best_Global_Response_Times    => 
            ((Referenced_Event => initialnode1,
              Time_Value       => 0.420006)),
         Jitters                       => 
            ((Referenced_Event => initialnode1,
              Time_Value       => 0.083627))),
        (Type                          => Timing_Result,
         Event_Name                    => gmmap2__internal_event_2,
         Num_Of_Suspensions            => 0,
         Worst_Blocking_Time           => 0.000,
         Worst_Global_Response_Times   => 
            ((Referenced_Event => initialnode1,
              Time_Value       => 0.512028)),
         Best_Global_Response_Times    => 
            ((Referenced_Event => initialnode1,
              Time_Value       => 0.420841)),
         Jitters                       => 
            ((Referenced_Event => initialnode1,
              Time_Value       => 0.091187)))));

Transaction (
   Name     => lasermb1,
   Results  => 
       ((Type                          => Timing_Result,
         Event_Name                    => lasermb1__internal_event_1,
         Num_Of_Suspensions            => 0,
         Worst_Blocking_Time           => 0.000,
         Worst_Global_Response_Times   => 
            ((Referenced_Event => initialnode1,
              Time_Value       => 0.002433)),
         Best_Global_Response_Times    => 
            ((Referenced_Event => initialnode1,
              Time_Value       => 8.606E-05)),
         Jitters                       => 
            ((Referenced_Event => initialnode1,
              Time_Value       => 0.002347))),
        (Type                          => Timing_Result,
         Event_Name                    => lasermb1__internal_event_2,
         Num_Of_Suspensions            => 0,
         Worst_Blocking_Time           => 0.000,
         Worst_Global_Response_Times   => 
            ((Referenced_Event => initialnode1,
              Time_Value       => 0.015134)),
         Best_Global_Response_Times    => 
            ((Referenced_Event => initialnode1,
              Time_Value       => 9.217E-04)),
         Jitters                       => 
            ((Referenced_Event => initialnode1,
              Time_Value       => 0.014212)))));

Transaction (
   Name     => gmcon2,
   Results  => 
       ((Type                          => Timing_Result,
         Event_Name                    => gmcon2__internal_event_1,
         Num_Of_Suspensions            => 0,
         Worst_Blocking_Time           => 0.000,
         Worst_Global_Response_Times   => 
            ((Referenced_Event => initialnode1,
              Time_Value       => 0.498163)),
         Best_Global_Response_Times    => 
            ((Referenced_Event => initialnode1,
              Time_Value       => 5.206E-04)),
         Jitters                       => 
            ((Referenced_Event => initialnode1,
              Time_Value       => 0.497642)))));

Transaction (
   Name     => lasergm3,
   Results  => 
       ((Type                          => Timing_Result,
         Event_Name                    => lasergm3__internal_event_1,
         Num_Of_Suspensions            => 0,
         Worst_Blocking_Time           => 0.000,
         Worst_Global_Response_Times   => 
            ((Referenced_Event => initialnode1,
              Time_Value       => 0.002533)),
         Best_Global_Response_Times    => 
            ((Referenced_Event => initialnode1,
              Time_Value       => 8.606E-05)),
         Jitters                       => 
            ((Referenced_Event => initialnode1,
              Time_Value       => 0.002447))),
        (Type                          => Timing_Result,
         Event_Name                    => lasergm3__internal_event_2,
         Num_Of_Suspensions            => 0,
         Worst_Blocking_Time           => 0.000,
         Worst_Global_Response_Times   => 
            ((Referenced_Event => initialnode1,
              Time_Value       => 0.299618)),
         Best_Global_Response_Times    => 
            ((Referenced_Event => initialnode1,
              Time_Value       => 1.074E-04)),
         Jitters                       => 
            ((Referenced_Event => initialnode1,
              Time_Value       => 0.299511))),
        (Type                          => Timing_Result,
         Event_Name                    => lasergm3__internal_event_3,
         Num_Of_Suspensions            => 0,
         Worst_Blocking_Time           => 0.000,
         Worst_Global_Response_Times   => 
            ((Referenced_Event => initialnode1,
              Time_Value       => 0.314380)),
         Best_Global_Response_Times    => 
            ((Referenced_Event => initialnode1,
              Time_Value       => 9.430E-04)),
         Jitters                       => 
            ((Referenced_Event => initialnode1,
              Time_Value       => 0.313437)))));

Transaction (
   Name     => odomgm2,
   Results  => 
       ((Type                          => Timing_Result,
         Event_Name                    => odomgm2__internal_event_1,
         Num_Of_Suspensions            => 0,
         Worst_Blocking_Time           => 0.000,
         Worst_Global_Response_Times   => 
            ((Referenced_Event => initialnode1,
              Time_Value       => 0.002533)),
         Best_Global_Response_Times    => 
            ((Referenced_Event => initialnode1,
              Time_Value       => 3.648E-04)),
         Jitters                       => 
            ((Referenced_Event => initialnode1,
              Time_Value       => 0.002168))),
        (Type                          => Timing_Result,
         Event_Name                    => odomgm2__internal_event_2,
         Num_Of_Suspensions            => 0,
         Worst_Blocking_Time           => 0.000,
         Worst_Global_Response_Times   => 
            ((Referenced_Event => initialnode1,
              Time_Value       => 0.008395)),
         Best_Global_Response_Times    => 
            ((Referenced_Event => initialnode1,
              Time_Value       => 0.001200)),
         Jitters                       => 
            ((Referenced_Event => initialnode1,
              Time_Value       => 0.007195)))));

Transaction (
   Name     => odommb2,
   Results  => 
       ((Type                          => Timing_Result,
         Event_Name                    => odommb2__internal_event_1,
         Num_Of_Suspensions            => 0,
         Worst_Blocking_Time           => 0.000,
         Worst_Global_Response_Times   => 
            ((Referenced_Event => initialnode1,
              Time_Value       => 0.002533)),
         Best_Global_Response_Times    => 
            ((Referenced_Event => initialnode1,
              Time_Value       => 3.648E-04)),
         Jitters                       => 
            ((Referenced_Event => initialnode1,
              Time_Value       => 0.002168))),
        (Type                          => Timing_Result,
         Event_Name                    => odommb2__internal_event_2,
         Num_Of_Suspensions            => 0,
         Worst_Blocking_Time           => 0.000,
         Worst_Global_Response_Times   => 
            ((Referenced_Event => initialnode1,
              Time_Value       => 0.008395)),
         Best_Global_Response_Times    => 
            ((Referenced_Event => initialnode1,
              Time_Value       => 0.001200)),
         Jitters                       => 
            ((Referenced_Event => initialnode1,
              Time_Value       => 0.007195)))));

Transaction (
   Name     => triggerglobalplan2,
   Results  => 
       ((Type                          => Timing_Result,
         Event_Name                    => triggerglobalplan2__internal_event_1,
         Num_Of_Suspensions            => 0,
         Worst_Blocking_Time           => 0.000,
         Worst_Global_Response_Times   => 
            ((Referenced_Event => initialnode1,
              Time_Value       => 0.010707)),
         Best_Global_Response_Times    => 
            ((Referenced_Event => initialnode1,
              Time_Value       => 9.566E-04)),
         Jitters                       => 
            ((Referenced_Event => initialnode1,
              Time_Value       => 0.009750)))));

Transaction (
   Name     => mojo_frames_mb2,
   Results  => 
       ((Type                          => Timing_Result,
         Event_Name                    => mojo_frames_mb2__internal_event_1,
         Num_Of_Suspensions            => 0,
         Worst_Blocking_Time           => 0.000,
         Worst_Global_Response_Times   => 
            ((Referenced_Event => initialnode1,
              Time_Value       => 0.010226)),
         Best_Global_Response_Times    => 
            ((Referenced_Event => initialnode1,
              Time_Value       => 3.632E-04)),
         Jitters                       => 
            ((Referenced_Event => initialnode1,
              Time_Value       => 0.009862))),
        (Type                          => Timing_Result,
         Event_Name                    => mojo_frames_mb2__internal_event_2,
         Num_Of_Suspensions            => 0,
         Worst_Blocking_Time           => 0.000,
         Worst_Global_Response_Times   => 
            ((Referenced_Event => initialnode1,
              Time_Value       => 0.018621)),
         Best_Global_Response_Times    => 
            ((Referenced_Event => initialnode1,
              Time_Value       => 0.001199)),
         Jitters                       => 
            ((Referenced_Event => initialnode1,
              Time_Value       => 0.017422)))));

Transaction (
   Name     => lasermb2,
   Results  => 
       ((Type                          => Timing_Result,
         Event_Name                    => lasermb2__internal_event_1,
         Num_Of_Suspensions            => 0,
         Worst_Blocking_Time           => 0.000,
         Worst_Global_Response_Times   => 
            ((Referenced_Event => initialnode1,
              Time_Value       => 0.002533)),
         Best_Global_Response_Times    => 
            ((Referenced_Event => initialnode1,
              Time_Value       => 1.861E-04)),
         Jitters                       => 
            ((Referenced_Event => initialnode1,
              Time_Value       => 0.002347))),
        (Type                          => Timing_Result,
         Event_Name                    => lasermb2__internal_event_2,
         Num_Of_Suspensions            => 0,
         Worst_Blocking_Time           => 0.000,
         Worst_Global_Response_Times   => 
            ((Referenced_Event => initialnode1,
              Time_Value       => 0.008395)),
         Best_Global_Response_Times    => 
            ((Referenced_Event => initialnode1,
              Time_Value       => 0.001022)),
         Jitters                       => 
            ((Referenced_Event => initialnode1,
              Time_Value       => 0.007373)))));

Transaction (
   Name     => mojo_frames_gm3,
   Results  => 
       ((Type                          => Timing_Result,
         Event_Name                    => mojo_frames_gm3__internal_event_1,
         Num_Of_Suspensions            => 0,
         Worst_Blocking_Time           => 0.000,
         Worst_Global_Response_Times   => 
            ((Referenced_Event => initialnode1,
              Time_Value       => 0.021478)),
         Best_Global_Response_Times    => 
            ((Referenced_Event => initialnode1,
              Time_Value       => 3.632E-04)),
         Jitters                       => 
            ((Referenced_Event => initialnode1,
              Time_Value       => 0.021114))),
        (Type                          => Timing_Result,
         Event_Name                    => mojo_frames_gm3__internal_event_2,
         Num_Of_Suspensions            => 0,
         Worst_Blocking_Time           => 0.000,
         Worst_Global_Response_Times   => 
            ((Referenced_Event => initialnode1,
              Time_Value       => 0.318415)),
         Best_Global_Response_Times    => 
            ((Referenced_Event => initialnode1,
              Time_Value       => 3.986E-04)),
         Jitters                       => 
            ((Referenced_Event => initialnode1,
              Time_Value       => 0.318017))),
        (Type                          => Timing_Result,
         Event_Name                    => mojo_frames_gm3__internal_event_3,
         Num_Of_Suspensions            => 0,
         Worst_Blocking_Time           => 0.000,
         Worst_Global_Response_Times   => 
            ((Referenced_Event => initialnode1,
              Time_Value       => 0.805869)),
         Best_Global_Response_Times    => 
            ((Referenced_Event => initialnode1,
              Time_Value       => 0.001234)),
         Jitters                       => 
            ((Referenced_Event => initialnode1,
              Time_Value       => 0.804635)))));

Transaction (
   Name     => mapstitch,
   Results  => 
       ((Type                          => Timing_Result,
         Event_Name                    => mapstitch__internal_event_1,
         Num_Of_Suspensions            => 0,
         Worst_Blocking_Time           => 0.000,
         Worst_Global_Response_Times   => 
            ((Referenced_Event => initialnode1,
              Time_Value       => 1.724)),
         Best_Global_Response_Times    => 
            ((Referenced_Event => initialnode1,
              Time_Value       => 1.710)),
         Jitters                       => 
            ((Referenced_Event => initialnode1,
              Time_Value       => 0.014545))),
        (Type                          => Timing_Result,
         Event_Name                    => mapstitch__internal_event_2,
         Num_Of_Suspensions            => 0,
         Worst_Blocking_Time           => 0.000,
         Worst_Global_Response_Times   => 
            ((Referenced_Event => initialnode1,
              Time_Value       => 2.022)),
         Best_Global_Response_Times    => 
            ((Referenced_Event => initialnode1,
              Time_Value       => 2.006)),
         Jitters                       => 
            ((Referenced_Event => initialnode1,
              Time_Value       => 0.015398))),
        (Type                          => Timing_Result,
         Event_Name                    => mapstitch__internal_event_3,
         Num_Of_Suspensions            => 0,
         Worst_Blocking_Time           => 0.000,
         Worst_Global_Response_Times   => 
            ((Referenced_Event => initialnode1,
              Time_Value       => 3.746)),
         Best_Global_Response_Times    => 
            ((Referenced_Event => initialnode1,
              Time_Value       => 3.716)),
         Jitters                       => 
            ((Referenced_Event => initialnode1,
              Time_Value       => 0.029942))),
        (Type                          => Timing_Result,
         Event_Name                    => mapstitch__internal_event_4,
         Num_Of_Suspensions            => 0,
         Worst_Blocking_Time           => 0.000,
         Worst_Global_Response_Times   => 
            ((Referenced_Event => initialnode1,
              Time_Value       => 3.747)),
         Best_Global_Response_Times    => 
            ((Referenced_Event => initialnode1,
              Time_Value       => 3.717)),
         Jitters                       => 
            ((Referenced_Event => initialnode1,
              Time_Value       => 0.030083)))));

Processing_Resource (
   Name     => t420_n2_c1,
   Results  => 
       ((Type   => Utilization,
         Total  => 53.68%)));

Processing_Resource (
   Name     => t420_n3_c1,
   Results  => 
       ((Type   => Utilization,
         Total  => 4.51%)));

Processing_Resource (
   Name     => robot_pc1,
   Results  => 
       ((Type   => Utilization,
         Total  => 0.740552%)));

Processing_Resource (
   Name     => t420_n3_c2,
   Results  => 
       ((Type   => Utilization,
         Total  => 18.73%)));

Processing_Resource (
   Name     => t420_n3_c4,
   Results  => 
       ((Type   => Utilization,
         Total  => 19.62%)));

Processing_Resource (
   Name     => t420_n1_c4,
   Results  => 
       ((Type   => Utilization,
         Total  => 51.73%)));

Processing_Resource (
   Name     => t420_n2_c4,
   Results  => 
       ((Type   => Utilization,
         Total  => 53.68%)));

Processing_Resource (
   Name     => t420_n2_c2,
   Results  => 
       ((Type   => Utilization,
         Total  => 2.87%)));

Processing_Resource (
   Name     => t420_n1_c2,
   Results  => 
       ((Type   => Utilization,
         Total  => 2.88%)));

Processing_Resource (
   Name     => t420_n2_c3,
   Results  => 
       ((Type   => Utilization,
         Total  => 20.65%)));

Processing_Resource (
   Name     => t420_n3_c3,
   Results  => 
       ((Type   => Utilization,
         Total  => 17.68%)));

Processing_Resource (
   Name     => t420_n1_c1,
   Results  => 
       ((Type   => Utilization,
         Total  => 23.52%)));

Processing_Resource (
   Name     => t420_n1_c3,
   Results  => 
       ((Type   => Utilization,
         Total  => 19.91%)));

