Initializing error report...
 6   Processing_Resource (
 7       Type                         => Packet_Based_Network
 8   ,   Name                         => Robot_PC1
 9   ,   Speed_Factor                 => 1.0    
 10  ,   Throughput                   => 11534336    
 11  ,   Transmission                 => Half_Duplex		
 12  ,   Max_Packet_Size              => 32
 13  ,   Max_Packet_Transmission_Time => 2.0E-3
 14  );	    
 17  Processing_Resource (
 18      Type                   => Regular_Processor
 19  ,   Name                   => Station_T420
 20  ,   Speed_Factor           => 1.0    
 21  ,   Worst_ISR_Switch      => 3.5E-6			
 22  ,   Best_ISR_Switch        => 2.8E-6			
 23  ,   Avg_ISR_Switch         => 3.0E-6			
 24  ,   Max_Interrupt_Priority => 110
 25  ,   Min_Interrupt_Priority => 101	
 26  );
 29  Processing_Resource (
 30      Type                   => Regular_Processor
 31  ,   Name                   => Station_HP
 32  ,   Speed_Factor           => 1.0    
 33  ,   Worst_ISR_Switch      => 3.5E-6			
 34  ,   Best_ISR_Switch        => 2.8E-6			
 35  ,   Avg_ISR_Switch         => 3.0E-6			
 36  ,   Max_Interrupt_Priority => 110
 37  ,   Min_Interrupt_Priority => 101	
 38  );
 41  Processing_Resource (
 42      Type                   => Regular_Processor
 43  ,   Name                   => Station_T420_core2
 44  ,   Speed_Factor           => 1.0    
 45  ,   Worst_ISR_Switch      => 3.5E-6			
 46  ,   Best_ISR_Switch        => 2.8E-6			
 47  ,   Avg_ISR_Switch         => 3.0E-6			
 48  ,   Max_Interrupt_Priority => 110
 49  ,   Min_Interrupt_Priority => 101	
 50  );
 56  Scheduler (
 57      Type   => Primary_Scheduler
 58  ,   Name   => Robot_PC1_Scheduler
 59  ,   Policy => (        
 60          Type                     => FP_Packet_Based
 63      )	
 64  ,   Host   => Robot_PC1
 65  );	
 68  Scheduler (
 69      Type   => Primary_Scheduler
 70  ,   Name   => Station_T420_Scheduler
 71  ,   Policy => (            Type                 => Fixed_Priority
 72  ,           Worst_Context_Switch => 3.5E-6				
 73  ,           Best_Context_Switch  => 2.8E-6	
 74  ,           Avg_Context_Switch   => 3.0E-6						
 75  ,           Max_Priority         => 100
 76  ,           Min_Priority         => 1		
 77      )	
 78  ,   Host   => Station_T420
 79  );	
 82  Scheduler (
 83      Type   => Primary_Scheduler
 84  ,   Name   => Station_HP_Scheduler
 85  ,   Policy => (            Type                 => Fixed_Priority
 86  ,           Worst_Context_Switch => 3.5E-6				
 87  ,           Best_Context_Switch  => 2.8E-6	
 88  ,           Avg_Context_Switch   => 3.0E-6						
 89  ,           Max_Priority         => 100
 90  ,           Min_Priority         => 1		
 91      )	
 92  ,   Host   => Station_HP
 93  );	
 96  Scheduler (
 97      Type   => Primary_Scheduler
 98  ,   Name   => Station_T420_core2_Scheduler
 99  ,   Policy => (            Type                 => Fixed_Priority
 100 ,           Worst_Context_Switch => 3.5E-6				
 101 ,           Best_Context_Switch  => 2.8E-6	
 102 ,           Avg_Context_Switch   => 3.0E-6						
 103 ,           Max_Priority         => 100
 104 ,           Min_Priority         => 1		
 105     )	
 106 ,   Host   => Station_T420_core2
 107 );	
 112 Scheduling_Server (
 113     Type                       => Regular
 114 ,   Name                       => Gmapping
 115 ,   Server_Sched_Parameters    => (
 117      		   Type		       => Fixed_Priority_Policy 
 118       		  ,The_Priority    => 30
 119     )
 120 ,   Scheduler                  => Station_HP_Scheduler    	
 121 );  
 124 Scheduling_Server (
 125     Type                       => Regular
 126 ,   Name                       => Mojo_frames
 127 ,   Server_Sched_Parameters    => (
 129      		   Type		       => Fixed_Priority_Policy 
 130       		  ,The_Priority    => 5
 131     )
 132 ,   Scheduler                  => Station_T420_Scheduler    	
 133 );  
 136 Scheduling_Server (
 137     Type                       => Regular
 138 ,   Name                       => Robot_PC1
 139 ,   Server_Sched_Parameters    => (
 140      		   Type		       => Fixed_Priority_Policy 
 141       		  ,The_Priority    => 50
 142     )
 143 ,   Scheduler                  => Robot_PC1_Scheduler    	
 144 );  
 147 Scheduling_Server (
 148     Type                       => Regular
 149 ,   Name                       => Mojo_Driver_Task
 150 ,   Server_Sched_Parameters    => (
 152      		   Type		       => Fixed_Priority_Policy 
 153       		  ,The_Priority    => 95
 154     )
 155 ,   Scheduler                  => Station_T420_Scheduler    	
 156 );  
 159 Scheduling_Server (
 160     Type                       => Regular
 161 ,   Name                       => Move_Base_Task
 162 ,   Server_Sched_Parameters    => (
 164      		   Type		       => Fixed_Priority_Policy 
 165       		  ,The_Priority    => 10
 166     )
 167 ,   Scheduler                  => Station_T420_core2_Scheduler    	
 168 );  
 174 Shared_Resource (
 175     Type         => Priority_Inheritance_Resource
 176 ,   Name         => Robot_Data
 177 );
 180 Shared_Resource (
 181     Type         => Priority_Inheritance_Resource
 182 ,   Name         => Map_Data
 183 );
 203 Operation (
 204     Type                        => Simple,
 205     Name                        => NewGoal,
 206     Worst_Case_Execution_Time   => 0.97E-3,
 207     Best_Case_Execution_Time    => 0.83E-3,
 208     Avg_Case_Execution_Time     => 0.93E-3
 209 );
 211 Operation (
 212     Type                        => Simple,
 213     Name                        => PublishFrame,
 214     Worst_Case_Execution_Time   => 0.649E-3,
 215     Best_Case_Execution_Time    => 0.259E-3,
 216     Avg_Case_Execution_Time     => 0.55E-3
 217 );
 219 Operation (
 220     Type                        => Simple,
 221     Name                        => DummyOperation,
 222     Worst_Case_Execution_Time   => 0.0,
 223     Avg_Case_Execution_Time     => 0.0,
 224     Best_Case_Execution_Time    => 0.0
 225 );
 227 Operation (
 228     Type                        => Simple,
 229     Name                        => data_subscribe,
 230     Worst_Case_Execution_Time   => 0.97E-3,
 231     Best_Case_Execution_Time    => 0.83E-3,
 232     Avg_Case_Execution_Time     => 0.93E-3
 233 );
 235 Operation (
 236     Type                        => Simple,
 237     Name                        => ReadOdom,
 238     Worst_Case_Execution_Time   => 0.468E-3,
 239     Best_Case_Execution_Time    => 0.376E-3,
 240     Avg_Case_Execution_Time     => 0.404E-3
 241 );
 243 Operation (
 244     Type                        => Simple,
 245     Name                        => ExecuteCycles,
 246     Worst_Case_Execution_Time   => 10.651E-3,
 247     Best_Case_Execution_Time    => 0.83E-3,
 248     Avg_Case_Execution_Time     => 7.24E-3
 249 );
 251 Operation (
 252     Type                        => Simple,
 253     Name                        => VelCmd,
 254     Worst_Case_Execution_Time   => 0.1E-3,
 255     Best_Case_Execution_Time    => 0.1E-3,
 256     Avg_Case_Execution_Time     => 0.1E-3
 257 );
 259 Operation (
 260     Type                        => Simple,
 261     Name                        => UpdateMap,
 262     Worst_Case_Execution_Time   => 481.0E-3,
 263     Best_Case_Execution_Time    => 420.0E-3,
 264     Avg_Case_Execution_Time     => 458.0E-3
 265 );
 267 Operation (
 268     Type                        => Simple,
 269     Name                        => ReadLaser,
 270     Worst_Case_Execution_Time   => 0.792E-3,
 271     Best_Case_Execution_Time    => 0.084E-3,
 272     Avg_Case_Execution_Time     => 0.433E-3
 273 );
 275 Operation (
 276     Type                        => Message_Transmission,
 277     Name                        => sendOdomData,
 278     Max_Message_Size		=> 1024.0,
 279     Avg_Message_Size    	=> 1024.0,
 280     Min_Message_Size     	=> 1024.0
 281 );
 283 Operation (
 284     Type                        => Message_Transmission,
 285     Name                        => sendVel_cmd,
 286     Max_Message_Size		=> 1024.0,
 287     Avg_Message_Size    	=> 1024.0,
 288     Min_Message_Size     	=> 1024.0
 289 );
 291 Operation (
 292     Type                        => Message_Transmission,
 293     Name                        => sendMap,
 294     Max_Message_Size		=> 1024000.0,
 295     Avg_Message_Size    	=> 1024000.0,
 296     Min_Message_Size     	=> 1024000.0
 297 );
 299 Operation (
 300     Type                        => Message_Transmission,
 301     Name                        => sendLaserData,
 302     Max_Message_Size		=> 4096.0,
 303     Avg_Message_Size    	=> 4096.0,
 304     Min_Message_Size     	=> 4096.0
 305 );
 311 Transaction (
 312     Type            => Regular,
 313     Name            => Global_plan,
 314     External_Events => (
 315         (Type 		=> Periodic,
 316          Name 		=> InitialNode1,
 317          Period 	=> 500.0E-3)
 318     ),
 319     Internal_Events => (
 320         (Type 	=> Regular,
 321          Name 	=> Global_plan__Internal_Event_1,
 322          Timing_Requirements => (
 323                 Type              => Hard_Global_Deadline,
 324                 Deadline          => 500.0E-3,
 325                 Referenced_Event  => InitialNode1
 326          )
 327         )
 328     ),
 329     Event_Handlers  => (
 330         (Type                 => Activity,
 331          Input_Event          => InitialNode1,
 332          Output_Event         => Global_plan__Internal_Event_1,
 333          Activity_Operation   => NewGoal,
 334          Activity_Server      => Move_Base_Task
 335         )
 336     )
 337 );
 339 Transaction (
 340     Type            => Regular,
 341     Name            => Mojo_Frames_GM,
 342     External_Events => (
 343         (Type 		=> Periodic,
 344          Name 		=> InitialNode1,
 345          Period 	=> 50.0E-3)
 346     ),
 347     Internal_Events => (
 348         (Type 	=> Regular,
 349          Name 	=> Mojo_Frames_GM__Internal_Event_1
 350         ),
 351         (Type 	=> Regular,
 352          Name 	=> Mojo_Frames_GM__Internal_Event_2
 353         ),
 354         (Type 	=> Regular,
 355          Name 	=> Mojo_Frames_GM__Internal_Event_3,
 356          Timing_Requirements => (
 357                 Type              => Hard_Global_Deadline,
 358                 Deadline          => 1000.0E-3,
 359                 Referenced_Event  => InitialNode1
 360          )
 361         )
 362     ),
 363     Event_Handlers  => (
 364         (Type                 => Activity,
 365          Input_Event          => InitialNode1,
 366          Output_Event         => Mojo_Frames_GM__Internal_Event_1,
 367          Activity_Operation   => PublishFrame,
 368          Activity_Server      => Mojo_frames
 369         ),
 370         (Type                 => Activity,
 371          Input_Event          => Mojo_Frames_GM__Internal_Event_1,
 372          Output_Event         => Mojo_Frames_GM__Internal_Event_2,
 373          Activity_Operation   => DummyOperation,
 374          Activity_Server      => Robot_PC1
 375         ),
 376         (Type                 => Activity,
 377          Input_Event          => Mojo_Frames_GM__Internal_Event_2,
 378          Output_Event         => Mojo_Frames_GM__Internal_Event_3,
 379          Activity_Operation   => data_subscribe,
 380          Activity_Server      => Gmapping
 381         )
 382     )
 383 );
 385 Transaction (
 386     Type            => Regular,
 387     Name            => Mojo_Frames_MB,
 388     External_Events => (
 389         (Type 		=> Periodic,
 390          Name 		=> InitialNode1,
 391          Period 	=> 50.0E-3)
 392     ),
 393     Internal_Events => (
 394         (Type 	=> Regular,
 395          Name 	=> Mojo_Frames_MB__Internal_Event_1
 396         ),
 397         (Type 	=> Regular,
 398          Name 	=> Mojo_Frames_MB__Internal_Event_2
 399         ),
 400         (Type 	=> Regular,
 401          Name 	=> Mojo_Frames_MB__Internal_Event_3,
 402          Timing_Requirements => (
 403                 Type              => Hard_Global_Deadline,
 404                 Deadline          => 1000.0E-3,
 405                 Referenced_Event  => InitialNode1
 406          )
 407         )
 408     ),
 409     Event_Handlers  => (
 410         (Type                 => Activity,
 411          Input_Event          => InitialNode1,
 412          Output_Event         => Mojo_Frames_MB__Internal_Event_1,
 413          Activity_Operation   => PublishFrame,
 414          Activity_Server      => Mojo_frames
 415         ),
 416         (Type                 => Activity,
 417          Input_Event          => Mojo_Frames_MB__Internal_Event_1,
 418          Output_Event         => Mojo_Frames_MB__Internal_Event_2,
 419          Activity_Operation   => DummyOperation,
 420          Activity_Server      => Robot_PC1
 421         ),
 422         (Type                 => Activity,
 423          Input_Event          => Mojo_Frames_MB__Internal_Event_2,
 424          Output_Event         => Mojo_Frames_MB__Internal_Event_3,
 425          Activity_Operation   => data_subscribe,
 426          Activity_Server      => Move_Base_Task
 427         )
 428     )
 429 );
 431 Transaction (
 432     Type            => Regular,
 433     Name            => OdomGM,
 434     External_Events => (
 435         (Type 		=> Periodic,
 436          Name 		=> InitialNode1,
 437          Period 	=> 37.0E-3)
 438     ),
 439     Internal_Events => (
 440         (Type 	=> Regular,
 441          Name 	=> OdomGM__Internal_Event_1
 442         ),
 443         (Type 	=> Regular,
 444          Name 	=> OdomGM__Internal_Event_2
 445         ),
 446         (Type 	=> Regular,
 447          Name 	=> OdomGM__Internal_Event_3,
 448          Timing_Requirements => (
 449                 Type              => Hard_Global_Deadline,
 450                 Deadline          => 1000.0E-3,
 451                 Referenced_Event  => InitialNode1
 452          )
 453         )
 454     ),
 455     Event_Handlers  => (
 456         (Type                 => Activity,
 457          Input_Event          => InitialNode1,
 458          Output_Event         => OdomGM__Internal_Event_1,
 459          Activity_Operation   => ReadOdom,
 460          Activity_Server      => Mojo_Driver_Task
 461         ),
 462         (Type                 => Activity,
 463          Input_Event          => OdomGM__Internal_Event_1,
 464          Output_Event         => OdomGM__Internal_Event_2,
 465          Activity_Operation   => sendOdomData,
 466          Activity_Server      => Robot_PC1
 467         ),
 468         (Type                 => Activity,
 469          Input_Event          => OdomGM__Internal_Event_2,
 470          Output_Event         => OdomGM__Internal_Event_3,
 471          Activity_Operation   => data_subscribe,
 472          Activity_Server      => Gmapping
 473         )
 474     )
 475 );
 477 Transaction (
 478     Type            => Regular,
 479     Name            => OdomMB,
 480     External_Events => (
 481         (Type 		=> Periodic,
 482          Name 		=> InitialNode1,
 483          Period 	=> 37.0E-3)
 484     ),
 485     Internal_Events => (
 486         (Type 	=> Regular,
 487          Name 	=> OdomMB__Internal_Event_1
 488         ),
 489         (Type 	=> Regular,
 490          Name 	=> OdomMB__Internal_Event_2
 491         ),
 492         (Type 	=> Regular,
 493          Name 	=> OdomMB__Internal_Event_3,
 494          Timing_Requirements => (
 495                 Type              => Hard_Global_Deadline,
 496                 Deadline          => 1000.0E-3,
 497                 Referenced_Event  => InitialNode1
 498          )
 499         )
 500     ),
 501     Event_Handlers  => (
 502         (Type                 => Activity,
 503          Input_Event          => InitialNode1,
 504          Output_Event         => OdomMB__Internal_Event_1,
 505          Activity_Operation   => ReadOdom,
 506          Activity_Server      => Mojo_Driver_Task
 507         ),
 508         (Type                 => Activity,
 509          Input_Event          => OdomMB__Internal_Event_1,
 510          Output_Event         => OdomMB__Internal_Event_2,
 511          Activity_Operation   => sendOdomData,
 512          Activity_Server      => Robot_PC1
 513         ),
 514         (Type                 => Activity,
 515          Input_Event          => OdomMB__Internal_Event_2,
 516          Output_Event         => OdomMB__Internal_Event_3,
 517          Activity_Operation   => data_subscribe,
 518          Activity_Server      => Move_Base_Task
 519         )
 520     )
 521 );
 523 Transaction (
 524     Type            => Regular,
 525     Name            => MB_Nav,
 526     External_Events => (
 527         (Type 		=> Periodic,
 528          Name 		=> InitialNode1,
 529          Period 	=> 100.0E-3)
 530     ),
 531     Internal_Events => (
 532         (Type 	=> Regular,
 533          Name 	=> MB_Nav__Internal_Event_1
 534         ),
 535         (Type 	=> Regular,
 536          Name 	=> MB_Nav__Internal_Event_2
 537         ),
 538         (Type 	=> Regular,
 539          Name 	=> MB_Nav__Internal_Event_3,
 540          Timing_Requirements => (
 541                 Type              => Hard_Global_Deadline,
 542                 Deadline          => 200.0E-3,
 543                 Referenced_Event  => InitialNode1
 544          )
 545         )
 546     ),
 547     Event_Handlers  => (
 548         (Type                 => Activity,
 549          Input_Event          => InitialNode1,
 550          Output_Event         => MB_Nav__Internal_Event_1,
 551          Activity_Operation   => ExecuteCycles,
 552          Activity_Server      => Move_Base_Task
 553         ),
 554         (Type                 => Activity,
 555          Input_Event          => MB_Nav__Internal_Event_1,
 556          Output_Event         => MB_Nav__Internal_Event_2,
 557          Activity_Operation   => sendVel_cmd,
 558          Activity_Server      => Robot_PC1
 559         ),
 560         (Type                 => Activity,
 561          Input_Event          => MB_Nav__Internal_Event_2,
 562          Output_Event         => MB_Nav__Internal_Event_3,
 563          Activity_Operation   => VelCmd,
 564          Activity_Server      => Mojo_Driver_Task
 565         )
 566     )
 567 );
 569 Transaction (
 570     Type            => Regular,
 571     Name            => Map_GM,
 572     External_Events => (
 573         (Type 		=> Periodic,
 574          Name 		=> InitialNode1,
 575          Period 	=> 1.0)
 576     ),
 577     Internal_Events => (
 578         (Type 	=> Regular,
 579          Name 	=> Map_GM__Internal_Event_1
 580         ),
 581         (Type 	=> Regular,
 582          Name 	=> Map_GM__Internal_Event_2
 583         ),
 584         (Type 	=> Regular,
 585          Name 	=> Map_GM__Internal_Event_3,
 586          Timing_Requirements => (
 587                 Type              => Hard_Global_Deadline,
 588                 Deadline          => 1000.0E-3,
 589                 Referenced_Event  => InitialNode1
 590          )
 591         )
 592     ),
 593     Event_Handlers  => (
 594         (Type                 => Activity,
 595          Input_Event          => InitialNode1,
 596          Output_Event         => Map_GM__Internal_Event_1,
 597          Activity_Operation   => UpdateMap,
 598          Activity_Server      => Gmapping
 599         ),
 600         (Type                 => Activity,
 601          Input_Event          => Map_GM__Internal_Event_1,
 602          Output_Event         => Map_GM__Internal_Event_2,
 603          Activity_Operation   => sendMap,
 604          Activity_Server      => Robot_PC1
 605         ),
 606         (Type                 => Activity,
 607          Input_Event          => Map_GM__Internal_Event_2,
 608          Output_Event         => Map_GM__Internal_Event_3,
 609          Activity_Operation   => data_subscribe,
 610          Activity_Server      => Move_Base_Task
 611         )
 612     )
 613 );
 615 Transaction (
 616     Type            => Regular,
 617     Name            => LaserGM,
 618     External_Events => (
 619         (Type 		=> Periodic,
 620          Name 		=> InitialNode1,
 621          Period 	=> 79.0E-3)
 622     ),
 623     Internal_Events => (
 624         (Type 	=> Regular,
 625          Name 	=> LaserGM__Internal_Event_1
 626         ),
 627         (Type 	=> Regular,
 628          Name 	=> LaserGM__Internal_Event_2
 629         ),
 630         (Type 	=> Regular,
 631          Name 	=> LaserGM__Internal_Event_3,
 632          Timing_Requirements => (
 633                 Type              => Hard_Global_Deadline,
 634                 Deadline          => 1000.0E-3,
 635                 Referenced_Event  => InitialNode1
 636          )
 637         )
 638     ),
 639     Event_Handlers  => (
 640         (Type                 => Activity,
 641          Input_Event          => InitialNode1,
 642          Output_Event         => LaserGM__Internal_Event_1,
 643          Activity_Operation   => ReadLaser,
 644          Activity_Server      => Mojo_Driver_Task
 645         ),
 646         (Type                 => Activity,
 647          Input_Event          => LaserGM__Internal_Event_1,
 648          Output_Event         => LaserGM__Internal_Event_2,
 649          Activity_Operation   => sendLaserData,
 650          Activity_Server      => Robot_PC1
 651         ),
 652         (Type                 => Activity,
 653          Input_Event          => LaserGM__Internal_Event_2,
 654          Output_Event         => LaserGM__Internal_Event_3,
 655          Activity_Operation   => data_subscribe,
 656          Activity_Server      => Gmapping
 657         )
 658     )
 659 );
 661 Transaction (
 662     Type            => Regular,
 663     Name            => LaserMB,
 664     External_Events => (
 665         (Type 		=> Periodic,
 666          Name 		=> InitialNode1,
 667          Period 	=> 79.0E-3)
 668     ),
 669     Internal_Events => (
 670         (Type 	=> Regular,
 671          Name 	=> LaserMB__Internal_Event_1
 672         ),
 673         (Type 	=> Regular,
 674          Name 	=> LaserMB__Internal_Event_2
 675         ),
 676         (Type 	=> Regular,
 677          Name 	=> LaserMB__Internal_Event_3,
 678          Timing_Requirements => (
 679                 Type              => Hard_Global_Deadline,
 680                 Deadline          => 1000.0E-3,
 681                 Referenced_Event  => InitialNode1
 682          )
 683         )
 684     ),
 685     Event_Handlers  => (
 686         (Type                 => Activity,
 687          Input_Event          => InitialNode1,
 688          Output_Event         => LaserMB__Internal_Event_1,
 689          Activity_Operation   => ReadLaser,
 690          Activity_Server      => Mojo_Driver_Task
 691         ),
 692         (Type                 => Activity,
 693          Input_Event          => LaserMB__Internal_Event_1,
 694          Output_Event         => LaserMB__Internal_Event_2,
 695          Activity_Operation   => sendLaserData,
 696          Activity_Server      => Robot_PC1
 697         ),
 698         (Type                 => Activity,
 699          Input_Event          => LaserMB__Internal_Event_2,
 700          Output_Event         => LaserMB__Internal_Event_3,
 701          Activity_Operation   => data_subscribe,
 702          Activity_Server      => Move_Base_Task
 703         )
 704     )
 705 );
 707 

